%YAML 1.1
%TAG !u! tag:unity3d.com,2011:
--- !u!114 &11400000
MonoBehaviour:
  m_ObjectHideFlags: 0
  m_CorrespondingSourceObject: {fileID: 0}
  m_PrefabInstance: {fileID: 0}
  m_PrefabAsset: {fileID: 0}
  m_GameObject: {fileID: 0}
  m_Enabled: 1
  m_EditorHideFlags: 0
  m_Script: {fileID: 11500000, guid: 983768a6d7f75414c8102c713550e37c, type: 3}
  m_Name: colcha
  m_EditorClassIdentifier: 
  gunName: acolchonada
  maxMuniCount: 20
  actualMuni: 9
  reloadTime: 0.4
  damage: 100
  fireRate: 0.2
  range: 100
  recoil: {x: 80, y: 70}
  automatic: 0
